[
	{
		"foto": "img/temp/profile.jpg", 
		"tempo": "2016-07-11 19:04",
		"nome": "Roberta Smith"
	},
	{
		"foto": "img/temp/profile.jpg", 
		"tempo": "2016-07-11 18:14",
		"nome": "Roberta Smith"
	},
	{
		"foto": "img/temp/profile.jpg", 
		"tempo": "2016-07-11 18:04",
		"nome": "Roberta Smith"
	},
	{
		"foto": "img/temp/profile.jpg", 
		"tempo": "2016-07-11 15:04",
		"nome": "Roberta Smith"
	},
	{
		"foto": "img/temp/profile.jpg", 
		"tempo": "2016-07-11 13:04",
		"nome": "Roberta Smith"
	},
	{
		"foto": "img/temp/profile.jpg", 
		"tempo": "2016-07-10 19:04",
		"nome": "Roberta Smith"
	}
]